Komut dosyası root olarak çalışıyor, bu nedenle yeni odoo kullanıcısı oluşturuluyor

---- ODOO sistem kullanıcısı oluşturuluyor ----
The user `odoo' is already a member of `sudo'.
-------------------------

---- Update Server ----
-------------------------
Get:1 http://apt.postgresql.org/pub/repos/apt focal-pgdg InRelease [91.6 kB]
Hit:2 http://tr.archive.ubuntu.com/ubuntu focal InRelease
Ign:3 http://ftp.debian.org/debian focal-backports InRelease
Hit:4 http://tr.archive.ubuntu.com/ubuntu focal-updates InRelease
Get:5 http://tr.archive.ubuntu.com/ubuntu focal-backports InRelease [108 kB]
Err:6 http://ftp.debian.org/debian focal-backports Release
  404  Not Found [IP: 151.101.242.132 80]
Hit:7 http://tr.archive.ubuntu.com/ubuntu focal-security InRelease
Reading package lists...
E: The repository 'http://ftp.debian.org/debian focal-backports Release' does not have a Release file.
Reading package lists...
Building dependency tree...
Reading state information...
Calculating upgrade...
The following packages were automatically installed and are no longer required:
  libxmlb1 linux-headers-5.4.0-71 linux-headers-5.4.0-71-generic
  linux-image-5.4.0-71-generic linux-modules-5.4.0-71-generic
  linux-modules-extra-5.4.0-71-generic
Use 'sudo apt autoremove' to remove them.
0 upgraded, 0 newly installed, 0 to remove and 0 not upgraded.
Reading package lists...
Building dependency tree...
Reading state information...
git is already the newest version (1:2.25.1-1ubuntu3.6).
The following packages were automatically installed and are no longer required:
  libxmlb1 linux-headers-5.4.0-71 linux-headers-5.4.0-71-generic
  linux-image-5.4.0-71-generic linux-modules-5.4.0-71-generic
  linux-modules-extra-5.4.0-71-generic
Use 'sudo apt autoremove' to remove them.
0 upgraded, 0 newly installed, 0 to remove and 0 not upgraded.
Zaten PostgreSQL İstemci sürümü 15 sahibiz. Kurulum atlanıyor.

---- *********************************** ----

---- PostgreSQL Server Kuruluma Başladı ----

---- *********************************** ----

---- PostgreSQL İstemcisini Kurun ----
Reading package lists...
Building dependency tree...
Reading state information...
postgresql-client-15 is already the newest version (15.1-1.pgdg20.04+1).
The following packages were automatically installed and are no longer required:
  libxmlb1 linux-headers-5.4.0-71 linux-headers-5.4.0-71-generic
  linux-image-5.4.0-71-generic linux-modules-5.4.0-71-generic
  linux-modules-extra-5.4.0-71-generic
Use 'sudo apt autoremove' to remove them.
0 upgraded, 0 newly installed, 0 to remove and 0 not upgraded.
-----------------------------------------

---- Python Bağımlılıklarını Yükle ----
-----------------------------------------
Reading package lists...
Building dependency tree...
Reading state information...
python3-dev is already the newest version (3.8.2-0ubuntu2).
python3-setuptools is already the newest version (45.2.0-1).
python3-venv is already the newest version (3.8.2-0ubuntu2).
python3-pip is already the newest version (20.0.2-5ubuntu1.6).
The following packages were automatically installed and are no longer required:
  libxmlb1 linux-headers-5.4.0-71 linux-headers-5.4.0-71-generic
  linux-image-5.4.0-71-generic linux-modules-5.4.0-71-generic
  linux-modules-extra-5.4.0-71-generic
Use 'sudo apt autoremove' to remove them.
0 upgraded, 0 newly installed, 0 to remove and 0 not upgraded.

---- Odoo Web Bağımlılıkları ----
Reading package lists...
Building dependency tree...
Reading state information...
nodejs is already the newest version (10.19.0~dfsg-3ubuntu1).
npm is already the newest version (6.14.4+ds-1ubuntu2).
The following packages were automatically installed and are no longer required:
  libxmlb1 linux-headers-5.4.0-71 linux-headers-5.4.0-71-generic
  linux-image-5.4.0-71-generic linux-modules-5.4.0-71-generic
  linux-modules-extra-5.4.0-71-generic
Use 'sudo apt autoremove' to remove them.
0 upgraded, 0 newly installed, 0 to remove and 0 not upgraded.
Reading package lists...
Building dependency tree...
Reading state information...
node-clean-css is already the newest version (4.2.1+~4.3.0-1ubuntu4).
node-less is already the newest version (1.6.3~dfsg-3).
The following packages were automatically installed and are no longer required:
  libxmlb1 linux-headers-5.4.0-71 linux-headers-5.4.0-71-generic
  linux-image-5.4.0-71-generic linux-modules-5.4.0-71-generic
  linux-modules-extra-5.4.0-71-generic
Use 'sudo apt autoremove' to remove them.
0 upgraded, 0 newly installed, 0 to remove and 0 not upgraded.
/usr/local/bin/lessc -> /usr/local/lib/node_modules/less/bin/lessc
+ less-plugin-clean-css@1.5.1
+ less@4.1.3
updated 2 packages in 1.93s
Wkhtmltopdf, kullanıcının seçimi nedeniyle yüklenmedi!

---- Günlük dizini oluştur ----
Reading package lists...
Building dependency tree...
Reading state information...
libicu-dev is already the newest version (66.1-2ubuntu2.1).
libldap2-dev is already the newest version (2.4.49+dfsg-2ubuntu1.9).
libsasl2-dev is already the newest version (2.1.27+dfsg-2ubuntu0.1).
libssl-dev is already the newest version (1.1.1f-1ubuntu2.16).
libxml2-dev is already the newest version (2.9.10+dfsg-5ubuntu0.20.04.4).
libxslt1-dev is already the newest version (1.1.34-4ubuntu0.20.04.1).
zlib1g-dev is already the newest version (1:1.2.11.dfsg-2ubuntu1.5).
libpq-dev is already the newest version (15.1-1.pgdg20.04+1).
The following packages were automatically installed and are no longer required:
  libxmlb1 linux-headers-5.4.0-71 linux-headers-5.4.0-71-generic
  linux-image-5.4.0-71-generic linux-modules-5.4.0-71-generic
  linux-modules-extra-5.4.0-71-generic
Use 'sudo apt autoremove' to remove them.
0 upgraded, 0 newly installed, 0 to remove and 0 not upgraded.
Requirement already satisfied: pip in /odoo/15.0/env/lib/python3.8/site-packages (22.3.1)
------------------------------------------------------------
Odoo için gereksinimler /odoo/15.0/odoo/requirements.txt kuruluyor.
------------------------------------------------------------
Ignoring freezegun: markers 'python_version < "3.8"' don't match your environment
Ignoring gevent: markers 'python_version == "3.7"' don't match your environment
Ignoring gevent: markers 'python_version > "3.9"' don't match your environment
Ignoring greenlet: markers 'python_version == "3.7"' don't match your environment
Ignoring greenlet: markers 'python_version > "3.9"' don't match your environment
Ignoring ofxparse: markers 'python_version > "3.9"' don't match your environment
Ignoring psycopg2: markers 'sys_platform != "win32" and python_version < "3.8"' don't match your environment
Ignoring pypiwin32: markers 'sys_platform == "win32"' don't match your environment
Ignoring Werkzeug: markers 'python_version > "3.9"' don't match your environment
Ignoring xlrd: markers 'python_version < "3.8"' don't match your environment
Requirement already satisfied: Babel==2.9.1 in /odoo/15.0/env/lib/python3.8/site-packages (from -r /odoo/15.0/odoo/requirements.txt (line 1)) (2.9.1)
Requirement already satisfied: chardet==3.0.4 in /odoo/15.0/env/lib/python3.8/site-packages (from -r /odoo/15.0/odoo/requirements.txt (line 2)) (3.0.4)
Requirement already satisfied: cryptography==2.6.1 in /odoo/15.0/env/lib/python3.8/site-packages (from -r /odoo/15.0/odoo/requirements.txt (line 3)) (2.6.1)
Requirement already satisfied: decorator==4.4.2 in /odoo/15.0/env/lib/python3.8/site-packages (from -r /odoo/15.0/odoo/requirements.txt (line 4)) (4.4.2)
Requirement already satisfied: docutils==0.16 in /odoo/15.0/env/lib/python3.8/site-packages (from -r /odoo/15.0/odoo/requirements.txt (line 5)) (0.16)
Requirement already satisfied: ebaysdk==2.1.5 in /odoo/15.0/env/lib/python3.8/site-packages (from -r /odoo/15.0/odoo/requirements.txt (line 6)) (2.1.5)
Requirement already satisfied: freezegun==0.3.15 in /odoo/15.0/env/lib/python3.8/site-packages (from -r /odoo/15.0/odoo/requirements.txt (line 8)) (0.3.15)
Requirement already satisfied: gevent==20.9.0 in /odoo/15.0/env/lib/python3.8/site-packages (from -r /odoo/15.0/odoo/requirements.txt (line 10)) (20.9.0)
Requirement already satisfied: greenlet==0.4.17 in /odoo/15.0/env/lib/python3.8/site-packages (from -r /odoo/15.0/odoo/requirements.txt (line 13)) (0.4.17)
Requirement already satisfied: idna==2.8 in /odoo/15.0/env/lib/python3.8/site-packages (from -r /odoo/15.0/odoo/requirements.txt (line 15)) (2.8)
Requirement already satisfied: Jinja2==2.11.3 in /odoo/15.0/env/lib/python3.8/site-packages (from -r /odoo/15.0/odoo/requirements.txt (line 16)) (2.11.3)
Requirement already satisfied: libsass==0.18.0 in /odoo/15.0/env/lib/python3.8/site-packages (from -r /odoo/15.0/odoo/requirements.txt (line 17)) (0.18.0)
Requirement already satisfied: lxml==4.6.5 in /odoo/15.0/env/lib/python3.8/site-packages (from -r /odoo/15.0/odoo/requirements.txt (line 18)) (4.6.5)
Requirement already satisfied: MarkupSafe==1.1.0 in /odoo/15.0/env/lib/python3.8/site-packages (from -r /odoo/15.0/odoo/requirements.txt (line 19)) (1.1.0)
Requirement already satisfied: num2words==0.5.6 in /odoo/15.0/env/lib/python3.8/site-packages (from -r /odoo/15.0/odoo/requirements.txt (line 20)) (0.5.6)
Requirement already satisfied: ofxparse==0.19 in /odoo/15.0/env/lib/python3.8/site-packages (from -r /odoo/15.0/odoo/requirements.txt (line 21)) (0.19)
Requirement already satisfied: passlib==1.7.3 in /odoo/15.0/env/lib/python3.8/site-packages (from -r /odoo/15.0/odoo/requirements.txt (line 23)) (1.7.3)
Requirement already satisfied: Pillow==9.0.1 in /odoo/15.0/env/lib/python3.8/site-packages (from -r /odoo/15.0/odoo/requirements.txt (line 24)) (9.0.1)
Requirement already satisfied: polib==1.1.0 in /odoo/15.0/env/lib/python3.8/site-packages (from -r /odoo/15.0/odoo/requirements.txt (line 25)) (1.1.0)
Requirement already satisfied: psutil==5.6.7 in /odoo/15.0/env/lib/python3.8/site-packages (from -r /odoo/15.0/odoo/requirements.txt (line 26)) (5.6.7)
Requirement already satisfied: psycopg2==2.8.6 in /odoo/15.0/env/lib/python3.8/site-packages (from -r /odoo/15.0/odoo/requirements.txt (line 28)) (2.8.6)
Requirement already satisfied: pydot==1.4.1 in /odoo/15.0/env/lib/python3.8/site-packages (from -r /odoo/15.0/odoo/requirements.txt (line 29)) (1.4.1)
Requirement already satisfied: pyopenssl==19.0.0 in /odoo/15.0/env/lib/python3.8/site-packages (from -r /odoo/15.0/odoo/requirements.txt (line 30)) (19.0.0)
Requirement already satisfied: PyPDF2==1.26.0 in /odoo/15.0/env/lib/python3.8/site-packages (from -r /odoo/15.0/odoo/requirements.txt (line 31)) (1.26.0)
Requirement already satisfied: pyserial==3.4 in /odoo/15.0/env/lib/python3.8/site-packages (from -r /odoo/15.0/odoo/requirements.txt (line 33)) (3.4)
Requirement already satisfied: python-dateutil==2.7.3 in /odoo/15.0/env/lib/python3.8/site-packages (from -r /odoo/15.0/odoo/requirements.txt (line 34)) (2.7.3)
Requirement already satisfied: python-ldap==3.4.0 in /odoo/15.0/env/lib/python3.8/site-packages (from -r /odoo/15.0/odoo/requirements.txt (line 35)) (3.4.0)
Requirement already satisfied: python-stdnum==1.13 in /odoo/15.0/env/lib/python3.8/site-packages (from -r /odoo/15.0/odoo/requirements.txt (line 36)) (1.13)
Requirement already satisfied: pytz==2019.3 in /odoo/15.0/env/lib/python3.8/site-packages (from -r /odoo/15.0/odoo/requirements.txt (line 37)) (2019.3)
Requirement already satisfied: pyusb==1.0.2 in /odoo/15.0/env/lib/python3.8/site-packages (from -r /odoo/15.0/odoo/requirements.txt (line 38)) (1.0.2)
Requirement already satisfied: qrcode==6.1 in /odoo/15.0/env/lib/python3.8/site-packages (from -r /odoo/15.0/odoo/requirements.txt (line 39)) (6.1)
Requirement already satisfied: reportlab==3.5.59 in /odoo/15.0/env/lib/python3.8/site-packages (from -r /odoo/15.0/odoo/requirements.txt (line 40)) (3.5.59)
Requirement already satisfied: requests==2.25.1 in /odoo/15.0/env/lib/python3.8/site-packages (from -r /odoo/15.0/odoo/requirements.txt (line 41)) (2.25.1)
Requirement already satisfied: urllib3==1.26.5 in /odoo/15.0/env/lib/python3.8/site-packages (from -r /odoo/15.0/odoo/requirements.txt (line 42)) (1.26.5)
Requirement already satisfied: vobject==0.9.6.1 in /odoo/15.0/env/lib/python3.8/site-packages (from -r /odoo/15.0/odoo/requirements.txt (line 43)) (0.9.6.1)
Requirement already satisfied: Werkzeug==0.16.1 in /odoo/15.0/env/lib/python3.8/site-packages (from -r /odoo/15.0/odoo/requirements.txt (line 44)) (0.16.1)
Requirement already satisfied: xlrd==1.2.0 in /odoo/15.0/env/lib/python3.8/site-packages (from -r /odoo/15.0/odoo/requirements.txt (line 47)) (1.2.0)
Requirement already satisfied: XlsxWriter==1.1.2 in /odoo/15.0/env/lib/python3.8/site-packages (from -r /odoo/15.0/odoo/requirements.txt (line 48)) (1.1.2)
Requirement already satisfied: xlwt==1.3.* in /odoo/15.0/env/lib/python3.8/site-packages (from -r /odoo/15.0/odoo/requirements.txt (line 49)) (1.3.0)
Requirement already satisfied: zeep==3.4.0 in /odoo/15.0/env/lib/python3.8/site-packages (from -r /odoo/15.0/odoo/requirements.txt (line 50)) (3.4.0)
Requirement already satisfied: cffi!=1.11.3,>=1.8 in /odoo/15.0/env/lib/python3.8/site-packages (from cryptography==2.6.1->-r /odoo/15.0/odoo/requirements.txt (line 3)) (1.15.1)
Requirement already satisfied: asn1crypto>=0.21.0 in /odoo/15.0/env/lib/python3.8/site-packages (from cryptography==2.6.1->-r /odoo/15.0/odoo/requirements.txt (line 3)) (1.5.1)
Requirement already satisfied: six>=1.4.1 in /odoo/15.0/env/lib/python3.8/site-packages (from cryptography==2.6.1->-r /odoo/15.0/odoo/requirements.txt (line 3)) (1.16.0)
Requirement already satisfied: zope.interface in /odoo/15.0/env/lib/python3.8/site-packages (from gevent==20.9.0->-r /odoo/15.0/odoo/requirements.txt (line 10)) (5.5.2)
Requirement already satisfied: setuptools in /odoo/15.0/env/lib/python3.8/site-packages (from gevent==20.9.0->-r /odoo/15.0/odoo/requirements.txt (line 10)) (44.0.0)
Requirement already satisfied: zope.event in /odoo/15.0/env/lib/python3.8/site-packages (from gevent==20.9.0->-r /odoo/15.0/odoo/requirements.txt (line 10)) (4.5.0)
Requirement already satisfied: beautifulsoup4 in /odoo/15.0/env/lib/python3.8/site-packages (from ofxparse==0.19->-r /odoo/15.0/odoo/requirements.txt (line 21)) (4.11.1)
Requirement already satisfied: pyparsing>=2.1.4 in /odoo/15.0/env/lib/python3.8/site-packages (from pydot==1.4.1->-r /odoo/15.0/odoo/requirements.txt (line 29)) (3.0.9)
Requirement already satisfied: pyasn1>=0.3.7 in /odoo/15.0/env/lib/python3.8/site-packages (from python-ldap==3.4.0->-r /odoo/15.0/odoo/requirements.txt (line 35)) (0.4.8)
Requirement already satisfied: pyasn1-modules>=0.1.5 in /odoo/15.0/env/lib/python3.8/site-packages (from python-ldap==3.4.0->-r /odoo/15.0/odoo/requirements.txt (line 35)) (0.2.8)
Requirement already satisfied: certifi>=2017.4.17 in /odoo/15.0/env/lib/python3.8/site-packages (from requests==2.25.1->-r /odoo/15.0/odoo/requirements.txt (line 41)) (2022.9.24)
Requirement already satisfied: attrs>=17.2.0 in /odoo/15.0/env/lib/python3.8/site-packages (from zeep==3.4.0->-r /odoo/15.0/odoo/requirements.txt (line 50)) (22.1.0)
Requirement already satisfied: isodate>=0.5.4 in /odoo/15.0/env/lib/python3.8/site-packages (from zeep==3.4.0->-r /odoo/15.0/odoo/requirements.txt (line 50)) (0.6.1)
Requirement already satisfied: defusedxml>=0.4.1 in /odoo/15.0/env/lib/python3.8/site-packages (from zeep==3.4.0->-r /odoo/15.0/odoo/requirements.txt (line 50)) (0.7.1)
Requirement already satisfied: cached-property>=1.3.0 in /odoo/15.0/env/lib/python3.8/site-packages (from zeep==3.4.0->-r /odoo/15.0/odoo/requirements.txt (line 50)) (1.5.2)
Requirement already satisfied: requests-toolbelt>=0.7.1 in /odoo/15.0/env/lib/python3.8/site-packages (from zeep==3.4.0->-r /odoo/15.0/odoo/requirements.txt (line 50)) (0.10.1)
Requirement already satisfied: appdirs>=1.4.0 in /odoo/15.0/env/lib/python3.8/site-packages (from zeep==3.4.0->-r /odoo/15.0/odoo/requirements.txt (line 50)) (1.4.4)
Requirement already satisfied: pycparser in /odoo/15.0/env/lib/python3.8/site-packages (from cffi!=1.11.3,>=1.8->cryptography==2.6.1->-r /odoo/15.0/odoo/requirements.txt (line 3)) (2.21)
Requirement already satisfied: soupsieve>1.2 in /odoo/15.0/env/lib/python3.8/site-packages (from beautifulsoup4->ofxparse==0.19->-r /odoo/15.0/odoo/requirements.txt (line 21)) (2.3.2.post1)
-------------------------------------
* Sunucu yapılandırma dosyası oluştur
-------------------------------------
---------------------------------------------------------------------------

---- Root yetkisi ile /odoo erişim yetkisi ayarları yapılandırıldı----
---------------------------------------------------------------------------
rm: cannot remove '/odoo/demo.rasard.pro-15.0': No such file or directory
-------------------
* init.d dosyası oluşturuluyor
-------------------
--------------------------------------
* Init dosya güvenliğinin sağlanması
--------------------------------------
----------------------
* nginx kütüphanesinin kurulumu
----------------------
Reading package lists...
Building dependency tree...
Reading state information...
nginx is already the newest version (1.18.0-0ubuntu1.4).
The following packages were automatically installed and are no longer required:
  libxmlb1 linux-headers-5.4.0-71 linux-headers-5.4.0-71-generic
  linux-image-5.4.0-71-generic linux-modules-5.4.0-71-generic
  linux-modules-extra-5.4.0-71-generic
Use 'sudo apt autoremove' to remove them.
0 upgraded, 0 newly installed, 0 to remove and 0 not upgraded.
---------------------------
Nginx Odoo ayarları ayarlanıyor
---------------------------
dpkg-deb: building package 'demo.rasard.pro' in '/odoo/demo.rasard.pro-15.0.deb'.
Selecting previously unselected package demo.rasard.pro.
(Reading database ... 164834 files and directories currently installed.)
Preparing to unpack /odoo/demo.rasard.pro-15.0.deb ...
Unpacking demo.rasard.pro (8076) ...
Setting up demo.rasard.pro (8076) ...
-e -------------------------------------------
-e * Website demo.rasard.pro demo.rasard.pro aktif duruma getiriliyor
-e -------------------------------------------
-e ---------------------------------------
-e * Default website bilgilerin siliniyor
-e ---------------------------------------
Processing triggers for systemd (245.4-4ubuntu3.19) ...
---------------------------------
Gerektiğinde sertifikayı yükleyin
---------------------------------
Reading package lists...
Building dependency tree...
Reading state information...
dirmngr is already the newest version (2.2.19-3ubuntu2.2).
git is already the newest version (1:2.25.1-1ubuntu3.6).
wget is already the newest version (1.20.3-1ubuntu2).
dnsutils is already the newest version (1:9.16.1-0ubuntu2.11).
The following packages were automatically installed and are no longer required:
  libxmlb1 linux-headers-5.4.0-71 linux-headers-5.4.0-71-generic
  linux-image-5.4.0-71-generic linux-modules-5.4.0-71-generic
  linux-modules-extra-5.4.0-71-generic
Use 'sudo apt autoremove' to remove them.
0 upgraded, 0 newly installed, 0 to remove and 0 not upgraded.
Get:1 http://apt.postgresql.org/pub/repos/apt focal-pgdg InRelease [91.6 kB]
Ign:2 http://ftp.debian.org/debian focal-backports InRelease
Err:3 http://ftp.debian.org/debian focal-backports Release
  404  Not Found [IP: 151.101.242.132 80]
Hit:4 http://tr.archive.ubuntu.com/ubuntu focal InRelease
Hit:5 http://tr.archive.ubuntu.com/ubuntu focal-updates InRelease
Get:6 http://tr.archive.ubuntu.com/ubuntu focal-backports InRelease [108 kB]
Hit:7 http://tr.archive.ubuntu.com/ubuntu focal-security InRelease
Reading package lists...
E: The repository 'http://ftp.debian.org/debian focal-backports Release' does not have a Release file.
Ign:1 http://ftp.debian.org/debian focal-backports InRelease
Get:2 http://apt.postgresql.org/pub/repos/apt focal-pgdg InRelease [91.6 kB]
Err:3 http://ftp.debian.org/debian focal-backports Release
  404  Not Found [IP: 151.101.242.132 80]
Hit:4 http://tr.archive.ubuntu.com/ubuntu focal InRelease
Hit:5 http://tr.archive.ubuntu.com/ubuntu focal-updates InRelease
Get:6 http://tr.archive.ubuntu.com/ubuntu focal-backports InRelease [108 kB]
Hit:7 http://tr.archive.ubuntu.com/ubuntu focal-security InRelease
Reading package lists...
E: The repository 'http://ftp.debian.org/debian focal-backports Release' does not have a Release file.
Nginx ile sertifika yapılandırma
Reading package lists...
Building dependency tree...
Reading state information...
python3-certbot-nginx is already the newest version (0.40.0-0ubuntu0.1).
The following packages were automatically installed and are no longer required:
  libxmlb1 linux-headers-5.4.0-71 linux-headers-5.4.0-71-generic
  linux-image-5.4.0-71-generic linux-modules-5.4.0-71-generic
  linux-modules-extra-5.4.0-71-generic
Use 'sudo apt autoremove' to remove them.
0 upgraded, 0 newly installed, 0 to remove and 0 not upgraded.
Saving debug log to /var/log/letsencrypt/letsencrypt.log
Plugins selected: Authenticator nginx, Installer nginx
Obtaining a new certificate
Performing the following challenges:
http-01 challenge for demo.rasard.pro
nginx: [warn] conflicting server name "demo.rasard.com" on 0.0.0.0:80, ignored
nginx: [warn] conflicting server name "demo.rasard.pro" on 0.0.0.0:80, ignored
nginx: [warn] conflicting server name "dyesol.rasard.pro" on 0.0.0.0:80, ignored
Waiting for verification...
Cleaning up challenges
nginx: [warn] conflicting server name "demo.rasard.com" on 0.0.0.0:80, ignored
nginx: [warn] conflicting server name "demo.rasard.pro" on 0.0.0.0:80, ignored
nginx: [warn] conflicting server name "dyesol.rasard.pro" on 0.0.0.0:80, ignored
Deploying Certificate to VirtualHost /etc/nginx/sites-enabled/demo.rasard.pro
nginx: [warn] conflicting server name "demo.rasard.com" on 0.0.0.0:80, ignored
nginx: [warn] conflicting server name "demo.rasard.pro" on 0.0.0.0:80, ignored
nginx: [warn] conflicting server name "dyesol.rasard.pro" on 0.0.0.0:80, ignored
nginx: [warn] conflicting server name "demo.rasard.pro" on 0.0.0.0:443, ignored
nginx: [warn] conflicting server name "dyesol.rasard.pro" on 0.0.0.0:443, ignored
Redirecting all traffic on port 80 to ssl in /etc/nginx/sites-enabled/demo.rasard.pro
nginx: [warn] conflicting server name "demo.rasard.com" on 0.0.0.0:80, ignored
nginx: [warn] conflicting server name "demo.rasard.pro" on 0.0.0.0:80, ignored
nginx: [warn] conflicting server name "dyesol.rasard.pro" on 0.0.0.0:80, ignored
nginx: [warn] conflicting server name "demo.rasard.pro" on 0.0.0.0:443, ignored
nginx: [warn] conflicting server name "dyesol.rasard.pro" on 0.0.0.0:443, ignored

- - - - - - - - - - - - - - - - - - - - - - - - - - - - - - - - - - - - - - - -
Congratulations! You have successfully enabled https://demo.rasard.pro

You should test your configuration at:
https://www.ssllabs.com/ssltest/analyze.html?d=demo.rasard.pro
- - - - - - - - - - - - - - - - - - - - - - - - - - - - - - - - - - - - - - - -
IMPORTANT NOTES:
 - Congratulations! Your certificate and chain have been saved at:
   /etc/letsencrypt/live/demo.rasard.pro/fullchain.pem
   Your key file has been saved at:
   /etc/letsencrypt/live/demo.rasard.pro/privkey.pem
   Your cert will expire on 2023-02-21. To obtain a new or tweaked
   version of this certificate in the future, simply run certbot again
   with the "certonly" option. To non-interactively renew *all* of
   your certificates, run "certbot renew"
 - If you like Certbot, please consider supporting our work by:

   Donating to ISRG / Let's Encrypt:   https://letsencrypt.org/donate
   Donating to EFF:                    https://eff.org/donate-le

Install logrotate
Reading package lists...
Building dependency tree...
Reading state information...
logrotate is already the newest version (3.14.0-4ubuntu3).
The following packages were automatically installed and are no longer required:
  libxmlb1 linux-headers-5.4.0-71 linux-headers-5.4.0-71-generic
  linux-image-5.4.0-71-generic linux-modules-5.4.0-71-generic
  linux-modules-extra-5.4.0-71-generic
Use 'sudo apt autoremove' to remove them.
0 upgraded, 0 newly installed, 0 to remove and 0 not upgraded.
----------------------------
* Odoo Servisi Başlatılıyor
----------------------------
-----------------------------------------------------------
Tamamlandı! Odoo sunucusu ayağa kaldırıldı ve çalışıyor. Teknik Detaylar:
Ubuntu Sistem Kullanıcı Adı: odoo
Odoo Master Şifre: admin
Ubuntu Sistem Dizini: /odoo
Odoo Kurulum Dizini: /odoo/15.0
Odoo Yapılandırma Dosyası: /odoo/15.0/demo.rasard.pro.conf
Odoo Log Kayıtları: /odoo/15.0/logs/community/odoo-server.log
Python virtual environment (Python kütüphaneleri için): /odoo/15.0/env
Nginx Odoo Site: /etc/nginx/sites-available/demo.rasard.pro
SSL Sertifikasyon Dosya: 
SSL Sertifikasyon Anahtar Dosyası 
Protokol: https
PostgreSQL version: 15
PostgreSQL Kullanıcı: odoo
PostgreSQL Şifre: odoo
Odoo Başlat: sudo service demo.rasard.pro start
Odoo Durdur: sudo service demo.rasard.pro stop
Odoo Yeniden Başlat: sudo service demo.rasard.pro restart
-----------------------------------------------------------
